…
# put 80% of the data into the training set
starbucks_split <- initial_split(starbucks, prop = 0.80)


# assign the two splits to data frames - with descriptive names
starbucks_train <- training(starbucks_split)
starbucks_test <- testing(starbucks_split)

# splits

starbucks_train
```

    ## # A tibble: 61 × 8
    ##     ...1 item                            calor…¹   fat  carb fiber protein type 
    ##    <dbl> <chr>                             <dbl> <dbl> <dbl> <dbl>   <dbl> <chr>
    ##  1    31 Petite Vanilla Bean Scone           140     5    21     0       0 bake…
    ##  2    51 Birthday Cake Pop                   170     9    22     0       0 peti…
    ##  3    14 Chocolate Old-Fashioned Doughn…     420    21    57     2       5 bake…
    ##  4    67 Deluxe Fruit Blend                   80     0    20     2       0 salad
    ##  5    42 Cheese & Fruit                      480    28    39     6      18 bist…
    ##  6    50 Apple Pie                           180     7    27     0       2 peti…
    ##  7    43 Chicken & Hummus                    270     8    29     6      16 bist…
    ##  8    75 Greek Yogurt Honey Parfait          300    12    44     0       8 parf…
    ##  9    25 Marble Pound Cake                   350    13    54     0       6 bake…
    ## 10    57 Red Velvet Whoopie Pie              190    11    21     0       0 peti…
    ## # … with 51 more rows, and abbreviated variable name ¹​calories
…
